RISC_V_With_Hazards.sim/sim_1/behav/xsim/simulate.log
Time resolution is 1 ps
-------------------------------------------------------------
Starting RISC-V 5-Stage Pipeline Simulation
-------------------------------------------------------------
Reset released. Processor started.
Time: 10000 | PC: 00000000 | WriteBack Data: xxxxxxxx | x1:          0 | x2:          0 | x3:          0
Time: 20000 | PC: 00000004 | WriteBack Data: xxxxxxxx | x1:          0 | x2:          0 | x3:          0
Time: 30000 | PC: 00000008 | WriteBack Data: xxxxxxxx | x1:          0 | x2:          0 | x3:          0
Time: 40000 | PC: 0000000c | WriteBack Data: 00000000 | x1:          0 | x2:          0 | x3:          0
Time: 50000 | PC: 00000010 | WriteBack Data: 0000000a | x1:          0 | x2:          0 | x3:          0
Time: 60000 | PC: 00000014 | WriteBack Data: 00000005 | x1:         10 | x2:          0 | x3:          0
Time: 70000 | PC: 00000018 | WriteBack Data: 0000000f | x1:         10 | x2:          5 | x3:          0
Time: 80000 | PC: 0000001c | WriteBack Data: 00000004 | x1:         10 | x2:          5 | x3:         15
Time: 90000 | PC: 00000020 | WriteBack Data: 00000020 | x1:         10 | x2:          5 | x3:         15
Time: 100000 | PC: 00000024 | WriteBack Data: 0000000f | x1:         10 | x2:          5 | x3:         15
Time: 110000 | PC: 00000028 | WriteBack Data: 00000010 | x1:         10 | x2:          5 | x3:         15
Time: 120000 | PC: 0000002c | WriteBack Data: 00000021 | x1:         10 | x2:          5 | x3:         15
Time: 130000 | PC: 0000002c | WriteBack Data: 00000010 | x1:         10 | x2:          5 | x3:         15
Time: 140000 | PC: 00000030 | WriteBack Data: 0000000f | x1:         10 | x2:          5 | x3:         15
Time: 150000 | PC: 00000034 | WriteBack Data: 00000009 | x1:         10 | x2:          5 | x3:         15
Time: 160000 | PC: 0000001c | WriteBack Data: 00000014 | x1:         10 | x2:          5 | x3:         15
Time: 170000 | PC: 00000020 | WriteBack Data: 00000014 | x1:         10 | x2:          5 | x3:         15
Time: 180000 | PC: 00000024 | WriteBack Data: 00000000 | x1:         10 | x2:          5 | x3:         15
Time: 190000 | PC: 00000028 | WriteBack Data: 00000000 | x1:         10 | x2:          5 | x3:         15
Time: 200000 | PC: 0000002c | WriteBack Data: 00000021 | x1:         10 | x2:          5 | x3:         15
-------------------------------------------------------------
SUCCESS: x3 contains 15 (10 + 5). Pipeline is working!
-------------------------------------------------------------
$stop called at time : 200 ns : File "E:/Xilinx/Projects/RISC_V_With_Hazards/RISC_V_With_Hazards.srcs/sim_1/new/tb_riscv_top.sv" Line 73
